$ npm install
$ npm insatll jsonwebtoken
$ npm install babel-cli
$ npm install babel-preset-es2015 babel-preset-stage-2
$ npm install nodemon
$ npm install express-router-helper
$ npm install mongoose
$ npm install mongoose-type-email
$ npm install mongoose-unique-validator
$ npm install dotenv


------------------------------
** Data Format:

response : {
  message: "Successfully fetch all products",
  meta: {
    total: 50,
    totalPage: 5,
    perPage: 10,
    currentPage: 1
  },
  data: [
    {...},
    {...}.
    {...}
  ]
}

response : {
  message: "Successfully fetch all products",
  data: {
    _id: "asdfj12o&@3",
    name: "Product Name",
    price: "12.00"
  }
}

response: {
  message: "Cannot create order...",
  error: {
    email: "Invalid email address",
    phone: "Phone number is require"
  }
}
